<?xml version="1.0" encoding="UTF-8" standalone="no"?>
<svg
   xmlns:dc="http://purl.org/dc/elements/1.1/"
   xmlns:cc="http://creativecommons.org/ns#"
   xmlns:rdf="http://www.w3.org/1999/02/22-rdf-syntax-ns#"
   xmlns:svg="http://www.w3.org/2000/svg"
   xmlns="http://www.w3.org/2000/svg"
   xmlns:sodipodi="http://sodipodi.sourceforge.net/DTD/sodipodi-0.dtd"
   xmlns:inkscape="http://www.inkscape.org/namespaces/inkscape"
   id="svg2985"
   version="1.1"
   inkscape:version="0.48.4 r9939"
   width="128"
   height="128"
   sodipodi:docname="ico_settings.svg"
   inkscape:export-filename="D:\code\TaxiMini\Res\ico_settings@3.png"
   inkscape:export-xdpi="135"
   inkscape:export-ydpi="135">
  <metadata
     id="metadata2993">
    <rdf:RDF>
      <cc:Work
         rdf:about="">
        <dc:format>image/svg+xml</dc:format>
        <dc:type
           rdf:resource="http://purl.org/dc/dcmitype/StillImage" />
        <dc:title></dc:title>
      </cc:Work>
    </rdf:RDF>
  </metadata>
  <defs
     id="defs2991" />
  <sodipodi:namedview
     pagecolor="#000000"
     bordercolor="#666666"
     borderopacity="1"
     objecttolerance="10"
     gridtolerance="10"
     guidetolerance="10"
     inkscape:pageopacity="0"
     inkscape:pageshadow="2"
     inkscape:window-width="944"
     inkscape:window-height="830"
     id="namedview2989"
     showgrid="false"
     inkscape:zoom="1.7940592"
     inkscape:cx="143.06596"
     inkscape:cy="116.52005"
     inkscape:window-x="191"
     inkscape:window-y="112"
     inkscape:window-maximized="0"
     inkscape:current-layer="svg2985"
     showguides="true"
     inkscape:guide-bbox="true"
     inkscape:snap-bbox="true"
     inkscape:snap-center="true"
     inkscape:snap-global="false">
    <sodipodi:guide
       orientation="1,0"
       position="0,32.328923"
       id="guide2985" />
  </sodipodi:namedview>
  <path
     d="m 111.95308,70.4 c 0,-1.92 0.64,-4.48 0.64,-6.4 0,-1.92 0,-4.48 -0.64,-6.4 l 13.44,-9.6 c 1.28,-0.64 1.92,-2.56 0.64,-4.48 l -12.8,-22.4 c -0.64,-1.92 -2.56,-2.56 -3.84,-1.92 l -15.359998,7.04 c -3.2,-2.56 -7.68,-5.12 -11.52,-6.4 l -1.92,-16.64 c 0,-1.92 -1.28,-3.2 -3.2,-3.2 h -25.6 c -1.92,0 -3.2,1.28 -3.2,3.2 l -1.92,16 c -4.48,1.92 -8.32,3.84 -11.52,6.4 l -15.36,-6.4 c -1.28,-0.64 -3.2,0 -3.84,1.28 L 3.1530812,42.88 c -1.28,1.92 -1.28,3.84 0.64,4.48 L 17.233082,57.6 c 0,1.92 -0.64,4.48 -0.64,6.4 0,1.92 0,4.48 0.64,6.4 L 3.7930812,80 c -1.28,0.64 -1.92,2.56 -0.64,4.48 l 12.8000008,22.4 c 0.64,1.92 2.56,2.56 3.84,1.92 l 15.36,-7.04 c 3.2,2.56 7.68,5.12 11.52,6.4 l 1.92,16.64 c 0,1.92 1.28,3.2 3.2,3.2 h 25.6 c 1.92,0 3.2,-1.28 3.2,-3.2 l 1.92,-16.64 c 4.48,-1.92 8.32,-3.84 11.52,-6.4 l 15.359998,7.04 c 1.28,0.64 3.2,0 3.84,-1.28 l 12.8,-22.4 c 0.64,-1.28 0.64,-3.2 -0.64,-4.48 l -13.44,-10.24 z M 64.593082,89.6 c -14.08,0 -25.6,-11.52 -25.6,-25.6 0,-14.08 11.52,-25.6 25.6,-25.6 14.08,0 25.6,11.52 25.6,25.6 0,14.08 -11.52,25.6 -25.6,25.6 z"
     id="path7"
     inkscape:connector-curvature="0" />
</svg>
