<?xml version="1.0" encoding="UTF-8" standalone="no"?>
<svg
   xmlns:dc="http://purl.org/dc/elements/1.1/"
   xmlns:cc="http://creativecommons.org/ns#"
   xmlns:rdf="http://www.w3.org/1999/02/22-rdf-syntax-ns#"
   xmlns:svg="http://www.w3.org/2000/svg"
   xmlns="http://www.w3.org/2000/svg"
   xmlns:sodipodi="http://sodipodi.sourceforge.net/DTD/sodipodi-0.dtd"
   xmlns:inkscape="http://www.inkscape.org/namespaces/inkscape"
   id="svg2985"
   version="1.1"
   inkscape:version="0.48.4 r9939"
   width="128"
   height="128"
   sodipodi:docname="ico_repeat.svg"
   inkscape:export-filename="D:\code\TaxiMini\Res\ico_repeat@3.png"
   inkscape:export-xdpi="135"
   inkscape:export-ydpi="135">
  <metadata
     id="metadata2993">
    <rdf:RDF>
      <cc:Work
         rdf:about="">
        <dc:format>image/svg+xml</dc:format>
        <dc:type
           rdf:resource="http://purl.org/dc/dcmitype/StillImage" />
        <dc:title></dc:title>
      </cc:Work>
    </rdf:RDF>
  </metadata>
  <defs
     id="defs2991" />
  <sodipodi:namedview
     pagecolor="#000000"
     bordercolor="#666666"
     borderopacity="1"
     objecttolerance="10"
     gridtolerance="10"
     guidetolerance="10"
     inkscape:pageopacity="0"
     inkscape:pageshadow="2"
     inkscape:window-width="944"
     inkscape:window-height="830"
     id="namedview2989"
     showgrid="false"
     inkscape:zoom="1"
     inkscape:cx="188.76759"
     inkscape:cy="99.835859"
     inkscape:window-x="191"
     inkscape:window-y="112"
     inkscape:window-maximized="0"
     inkscape:current-layer="svg2985" />
  <path
     d="M 87.093093,23.707099 C 77.359799,19.419117 66.351845,18.741785 56.122554,21.984439 36.687968,28.101747 24.069354,46.539004 25.381349,66.837586 L 12.122737,67.706917 C 10.405411,41.275026 26.858675,17.269792 52.117238,9.2911586 66.92251,4.6245109 82.94911,6.2405042 96.565054,13.595141 L 109.29033,5.3006899e-4 112.68231,37.728374 72.719819,39.061701 87.093093,23.707099 z m -0.490665,94.996941 c -5.599977,1.75466 -11.41862,2.64532 -17.194596,2.64532 -9.413294,0 -18.757255,-2.43199 -27.194553,-6.9653 L 29.461332,128 26.074679,90.272156 66.015846,88.928162 51.65324,104.29877 c 9.717293,4.27198 20.725247,4.94398 30.954538,1.71732 19.429252,-6.133307 32.063862,-24.591897 30.735872,-44.847813 l 13.26395,-0.86933 c 1.74399,26.394557 -14.70928,50.410453 -40.005172,58.405093 z"
     clip-rule="evenodd"
     id="path6"
     inkscape:connector-curvature="0"
     style="fill-rule:evenodd" />
</svg>
